{
  "pins": {
    "nixpkgs": {
      "type": "Channel",
      "name": "nixos-24.11",
      "url": "https://releases.nixos.org/nixos/24.11/nixos-24.11.714433.0ff09db9d034/nixexprs.tar.xz",
      "hash": "0pln0ywq9abi7lrgsgrn1q4fhvqar0j69v1n292rpq5lzs5kjkrf"
    }
  },
  "version": 3
}